C:\Users\Iss\Documents\NetBeansProjects\portalActividades\src\main\java\com\cursojava\portalactividades\buscar.java
C:\Users\Iss\Documents\NetBeansProjects\portalActividades\src\main\java\com\cursojava\portalactividades\modelos\Curso.java
C:\Users\Iss\Documents\NetBeansProjects\portalActividades\src\main\java\com\cursojava\portalactividades\DbConexion.java
C:\Users\Iss\Documents\NetBeansProjects\portalActividades\src\main\java\com\cursojava\portalactividades\reserva.java
